<svg width="9" height="15" viewBox="0 0 9 15" fill="none" xmlns="http://www.w3.org/2000/svg">
<path fill-rule="evenodd" clip-rule="evenodd" d="M0.729575 8.24334L6.76952 14.2832C6.90922 14.423 7.0957 14.5 7.29454 14.5C7.49338 14.5 7.67986 14.423 7.81956 14.2832L8.26436 13.8385C8.5538 13.5487 8.5538 13.0778 8.26436 12.7884L3.19247 7.71655L8.26999 2.63903C8.40969 2.49923 8.48682 2.31286 8.48682 2.11412C8.48682 1.91517 8.40969 1.7288 8.26999 1.58888L7.82519 1.1443C7.68538 1.0045 7.49901 0.927476 7.30017 0.927476C7.10133 0.927476 6.91484 1.0045 6.77515 1.1443L0.729575 7.18966C0.589548 7.3299 0.512637 7.51716 0.513079 7.71622C0.512637 7.91606 0.589548 8.1032 0.729575 8.24334Z" fill="#222222"/>
</svg>
